{
  "type": "layer-target",
  "settings": {
    "color": "green",
    "interval": 1000,
    "maxtracklen": 100,
    "name": "SIRIUS",
    "options": {
      "showdash": true,
      "showrph": true,
      "showbatt": true,
      "showtrack": true,
      "setstate": true,
      "autotrack": true
    },
    "size": {
      "length": 4,
      "loffset": 2,
      "width": 1
    },
    "url": "data/platformdata.api.Platform/AUVSTAT.SIRIUS",
    "commandurl": "send_command/platformdata.lcmbased.Platform/AUVSTAT.SIRIUS"
  }
}
