{
  "type": "layer-target",
  "settings": {
    "color": "yellow",
    "interval": 1000,
    "maxtracklen": 100,
    "name": "AUV Sirius",
    "options": {
      "showdash": true,
      "showrph": true,
      "showbatt": true,
      "showtrack": true,
      "setstate": true,
      "autotrack": false
    },
    "size": 4,
    "url": "data/platformdata.api.Platform/AUVSTAT.SIRIUS",
    "commandurl": "send_command/platformdata.lcmbased.Platform/AUVSTAT.SIRIUS"
  }
}
